Homework 6
…
#max(coronavirus$date)

data_november <- coronavirus %>%  filter(country %in% south_america_b &
                          date >= '2020-11-01' & date <= '2020-11-25' &
                          type == "death") %>%
  group_by(country, type, date) %>%
  summarise(total_cases=sum(cases), .groups="drop") %>%
  pivot_wider(names_from=type,
              values_from=total_cases)# %>%
  #arrange(-death)

data_november

## # A tibble: 300 x 3
##    country   date       death
##    <chr>     <date>     <int>
##  1 Argentina 2020-11-01   138
##  2 Argentina 2020-11-02   483
##  3 Argentina 2020-11-03   429
##  4 Argentina 2020-11-04   468
##  5 Argentina 2020-11-05   246
##  6 Argentina 2020-11-06   370
##  7 Argentina 2020-11-07   212
##  8 Argentina 2020-11-08   212
##  9 Argentina 2020-11-09   347
## 10 Argentina 2020-11-10   276
## #  with 290 more rows
…
Para o ms de novembro os grficos mostram que Brasil, Peru e Colmbia tm se mantido acima da mdia de mortes dirias por coronavrus na Amrica Latina. Com exeo do Peru que ultrapassou a mdia de 85 mortes nos dias 4, 20 e 21, e dos 3 primeiros em mortes, o restante dos pases da Amrica Latina ficou abaixo deste valor. No dia 5 de novembro o nmero de mortes por coronavrus cadastrados no Brasil foi zero, indicando algum eventual problema.

COVID-19 no Brasil paa o ms de novembro de 2020

data_november_br <- coronavirus %>%  filter(country== "Brazil" &
                          date >= '2020-11-01' & date <= '2020-11-25' &
                          type == "death") %>%
  group_by(country, type, date) %>%
  summarise(total_cases=sum(cases), .groups="drop") %>%
  pivot_wider(names_from=type,
              values_from=total_cases)

data_november_br

## # A tibble: 25 x 3
##    country date       death
##    <chr>   <date>     <int>
##  1 Brazil  2020-11-01   190
##  2 Brazil  2020-11-02   179
##  3 Brazil  2020-11-03   243
##  4 Brazil  2020-11-04   610
##  5 Brazil  2020-11-05     0
##  6 Brazil  2020-11-06   909
##  7 Brazil  2020-11-07   254
##  8 Brazil  2020-11-08   128
##  9 Brazil  2020-11-09   231
## 10 Brazil  2020-11-10   174
## #  with 15 more rows
…
Olhando para o ms de novembro no  possvel notar uma tendncia que indique alguma possvel estabilizao do nmero de mortes por coronavrus no Brasil.

Evoluo do COVID-19 no Brasil

data_br <- coronavirus %>%  filter(country== "Brazil" &
                          type == "death") %>%
  group_by(country, type, date) %>%
  summarise(total_cases=sum(cases), .groups="drop") %>%
  pivot_wider(names_from=type,
              values_from=total_cases)

data_br

## # A tibble: 309 x 3
##    country date       death
##    <chr>   <date>     <int>
##  1 Brazil  2020-01-22     0
##  2 Brazil  2020-01-23     0
##  3 Brazil  2020-01-24     0
##  4 Brazil  2020-01-25     0
##  5 Brazil  2020-01-26     0
##  6 Brazil  2020-01-27     0
##  7 Brazil  2020-01-28     0
##  8 Brazil  2020-01-29     0
##  9 Brazil  2020-01-30     0
## 10 Brazil  2020-01-31     0
## #  with 299 more rows
…
Analisando a evoluo do coronavrus desde o incio de 2020 at o presente momento, pelo grfico acima, nota-se que embora haja uma tendncia de decaimento aps agosto, no ms de novembro h um aumento no nmero de mortes por coronavrus. Destaca-se ainda que a mdia para o perodo  de 553 ao dia. Ainda no  possvel afirmar que h uma tendncia de diminuio efetiva no nmero de mortes, sendo que a curva exibida acima mostra o reflexo do efeito de uma mitigao inadequada no combate a pandemia.

COVID-19 segunda onda

data_br_cases <- coronavirus %>%  filter(country== "Brazil" &
                          type == "confirmed") %>%
  group_by(country, type, date) %>%
  summarise(total_cases=sum(cases), .groups="drop") %>%
  pivot_wider(names_from=type,
              values_from=total_cases)

data_br_cases

## # A tibble: 309 x 3
##    country date       confirmed
##    <chr>   <date>         <int>
##  1 Brazil  2020-01-22         0
##  2 Brazil  2020-01-23         0
##  3 Brazil  2020-01-24         0
##  4 Brazil  2020-01-25         0
##  5 Brazil  2020-01-26         0
##  6 Brazil  2020-01-27         0
##  7 Brazil  2020-01-28         0
##  8 Brazil  2020-01-29         0
##  9 Brazil  2020-01-30         0
## 10 Brazil  2020-01-31         0
## #  with 299 more rows
…
