Homework 8
…
# Sobre srvyr:
# "There are three stages to using srvyr functions, creating a survey object, manipulating the data, and calculating survey statistics."
#?as_survey_design
#?as_survey_rep
#?as_survey_twophase

# coloca pesos e filtra pelo municpio de belo horizonte/mg
db_pesos <- db_pnad %>%
  as_survey_design(ids=UPA, strata=Estrato, weights=V1032, nest=TRUE) %>%
  filter(UF == "31")

db_pesos$variables

## # A tibble: 34,339 x 148
##      Ano    UF CAPITAL RM_RIDE V1008 V1012 V1013 V1016 Estrato    UPA V1022
##    <int> <int>   <int>   <int> <int> <int> <int> <int>   <int>  <int> <int>
##  1  2020    31      31      31     1     3    11     7 3110111 3.10e8     1
##  2  2020    31      31      31     1     3    11     7 3110111 3.10e8     1
##  3  2020    31      31      31     1     3    11     7 3110111 3.10e8     1
##  4  2020    31      31      31     2     1    11     7 3110111 3.10e8     1
##  5  2020    31      31      31     5     2    11     7 3110111 3.10e8     1
##  6  2020    31      31      31     5     2    11     7 3110111 3.10e8     1
##  7  2020    31      31      31     6     4    11     7 3110111 3.10e8     1
##  8  2020    31      31      31     6     4    11     7 3110111 3.10e8     1
##  9  2020    31      31      31     6     4    11     7 3110111 3.10e8     1
## 10  2020    31      31      31     6     4    11     7 3110111 3.10e8     1
## #  with 34,329 more rows, and 137 more variables: V1023 <int>, V1030 <int>,
## #   V1031 <dbl>, V1032 <dbl>, posest <int>, A001 <int>, A001A <int>,
## #   A001B1 <int>, A001B2 <int>, A001B3 <int>, A002 <int>, A003 <int>,
## #   A004 <int>, A005 <int>, A006 <int>, A006A <int>, A006B <int>, A007 <int>,
## #   A007A <int>, A008 <int>, A009 <int>, B0011 <int>, B0012 <int>, B0013 <int>,
## #   B0014 <int>, B0015 <int>, B0016 <int>, B0017 <int>, B0018 <int>,
## #   B0019 <int>, B00110 <int>, B00111 <int>, B00112 <int>, B00113 <int>,
## #   B002 <int>, B0031 <int>, B0032 <int>, B0033 <int>, B0034 <int>,
## #   B0035 <int>, B0036 <int>, B0037 <int>, B0041 <int>, B0042 <int>,
…
